…
This will download the file `Scoping_Review-Data.xlsx` from the Pandemic
PACT Figshare repository into the current working directory.

### Read the Pandemic PACT tracker dataset and data dictionary

To read the Pandemic PACT tracker dataset into R, issue the following
command:

``` r
pact_read_figshare(pact_client)
```

which outputs a data.frame with 4637 records and 860 fields.

    #> # A tibble: 4,637 × 860
    #>    PactID Grant.Number Grant.Title.Original                      Grant.Title.Eng
    #>    <chr>  <chr>        <chr>                                     <chr>          
    #>  1 C00153 unknown      Serological studies to quantify SARS-CoV… "Serological s…
    #>  2 C00154 unknown      African COVID-19 Preparedness (AFRICO19)  "African COVID…
    #>  3 C00155 unknown      COVID-19 Intervention Modelling for East… "COVID-19 Inte…
    #>  4 C00156 unknown      The African coaLition for Epidemic Resea… "The African c…
    #>  5 C00157 unknown      Characterization of SARS-CoV-2 transmiss… "Characterizat…
    #>  6 C00158 unknown      Investigation of pre-existing immunity t… "Investigation…
    #>  7 C00159 unknown      A comprehensive study of immunopathogene… ""             
    #>  8 C00160 MC_PC_19012  Centre for Global Infectious Disease Ana… "Centre for Gl…
    #>  9 C00161 MC_PC_19025  ISARIC - Coronavirus Clinical Characteri… "ISARIC - Coro…
    #> 10 C00162 MC_PC_19026  MRC Centre for Virus Research (MRC CVR) … "MRC Centre fo…
    #> # ℹ 4,627 more rows
    #> # ℹ 856 more variables: Award.Amount.Converted <dbl>, Abstract.Eng <chr>,
    #> #   Laysummary <chr>, ODA.funding.used <chr>, Grant.Type <chr>,
    #> #   Grant.Start.Year <int>, Study.Subject..choice.Animals. <chr>,
    #> #   Study.Subject..choice.Bacteria. <chr>,
    #> #   Study.Subject..choice.Human.Populations. <chr>,
    #> #   Study.Subject..choice.Disease.Vectors. <chr>, …

This function reads the *labelled* tracker dataset by default. If the
raw dataset is required, then issue the following command:

``` r
pact_read_figshare(pact_client, tracker_type = "raw")
```

which outputs a data.frame with 4638 records and 860 fields.

    #> # A tibble: 4,638 × 860
    #>    pactid grant_number grant_title_original                      grant_title_eng
    #>    <chr>  <chr>        <chr>                                     <chr>          
    #>  1 SDS001 unknown      Dummy record                              "Dummy record" 
    #>  2 C00153 unknown      Serological studies to quantify SARS-CoV… "Serological s…
    #>  3 C00154 unknown      African COVID-19 Preparedness (AFRICO19)  "African COVID…
    #>  4 C00155 unknown      COVID-19 Intervention Modelling for East… "COVID-19 Inte…
    #>  5 C00156 unknown      The African coaLition for Epidemic Resea… "The African c…
    #>  6 C00157 unknown      Characterization of SARS-CoV-2 transmiss… "Characterizat…
    #>  7 C00158 unknown      Investigation of pre-existing immunity t… "Investigation…
    #>  8 C00159 unknown      A comprehensive study of immunopathogene… ""             
    #>  9 C00160 MC_PC_19012  Centre for Global Infectious Disease Ana… "Centre for Gl…
    #> 10 C00161 MC_PC_19025  ISARIC - Coronavirus Clinical Characteri… "ISARIC - Coro…
    #> # ℹ 4,628 more rows
    #> # ℹ 856 more variables: award_amount_converted <dbl>, abstract <chr>,
    #> #   laysummary <chr>, oda_funding_used <int>, grant_type <int>,
    #> #   grant_start_year <int>, study_subject___1 <int>, study_subject___2 <int>,
    #> #   study_subject___3 <int>, study_subject___4 <int>, study_subject___5 <int>,
    #> #   study_subject___6 <int>, study_subject____88 <int>,
    #> #   study_subject____99 <int>, study_subject____9999 <int>, …

### Process the Pandemic PACT tracker dataset

``` r
pact_read_figshare(pact_client) |>
  pact_process_figshare() |>
  tibble::tibble()
```

    #> # A tibble: 4,637 × 37
    #>    PactID Grant.Number Grant.Title.Original                      Grant.Title.Eng
    #>    <chr>  <chr>        <chr>                                     <chr>          
    #>  1 C00153 unknown      Serological studies to quantify SARS-CoV… "Serological s…
    #>  2 C00154 unknown      African COVID-19 Preparedness (AFRICO19)  "African COVID…
    #>  3 C00155 unknown      COVID-19 Intervention Modelling for East… "COVID-19 Inte…
    #>  4 C00156 unknown      The African coaLition for Epidemic Resea… "The African c…
    #>  5 C00157 unknown      Characterization of SARS-CoV-2 transmiss… "Characterizat…
    #>  6 C00158 unknown      Investigation of pre-existing immunity t… "Investigation…
    #>  7 C00159 unknown      A comprehensive study of immunopathogene… ""             
    #>  8 C00160 MC_PC_19012  Centre for Global Infectious Disease Ana… "Centre for Gl…
    #>  9 C00161 MC_PC_19025  ISARIC - Coronavirus Clinical Characteri… "ISARIC - Coro…
    #> 10 C00162 MC_PC_19026  MRC Centre for Virus Research (MRC CVR) … "MRC Centre fo…
    #> # ℹ 4,627 more rows
    #> # ℹ 33 more variables: Award.Amount.Converted <dbl>, Abstract.Eng <chr>,
    #> #   Laysummary <chr>, ODA.funding.used <chr>, Grant.Type <chr>,
    #> #   Grant.Start.Year <int>, Study.Subject <list>, Ethnicity <list>,
    #> #   Age.Groups <list>, Rurality <list>, Vulnerable.Population <list>,
    #> #   Occupational.Groups <list>, Study.Type <list>, Clinical.Trial <list>,
    #> #   report <chr>, Pathogen <list>, Pathogen.Specific <list>, Disease <list>, …
…
### Read the Pandemic PACT tracker dataset from the website

Instead of downloading, the Pandemic PACT dataset available from its
website can be read into R directly as follows:

``` r
pact_read_website()
```

which results in the following:

    #> Warning in unzip(zipfile = system.file("extdata", "pandemic-pact-grants.zip", :
    #> error 1 in extracting from zip file
    #> # A tibble: 29,583 × 50
    #>    GrantID PubMedGrantId            OutbreakIds GrantTitleOriginal GrantTitleEng
    #>    <chr>   <chr>                    <lgl>       <chr>              <chr>        
    #>  1 C00018  unknown                  NA          "Mathematical mod… "Mathematica…
    #>  2 C00019  CCP-nCoV                 NA          "Cohort follow-up… "Cohort foll…
    #>  3 C00020  THERAMAB                 NA          "Identification a… "Identificat…
    #>  4 C00021  None                     NA          "Using social sci… "Using socia…
    #>  5 C00022  CoV-CONTACT              NA          "Follow-up of sub… "Follow-up o…
    #>  6 C00023  Réplicon                 NA          "Development of a… "Development…
    #>  7 C00024  A Toolbox for SARS-CoV-… NA          "Potentiating exi… "Potentiatin…
    #>  8 C00025  NHP Model                NA          "Establishment of… "Establishme…
    #>  9 C00026  SARS-CoV2-LIPS           NA          "Antibody profili… "Antibody pr…
    #> 10 C00027  SARS-CoV-2_EVOLSERO      NA          "Evolution of SAR… "Evolution o…
    #> # ℹ 29,573 more rows
    #> # ℹ 45 more variables: AbstractOriginal <chr>, Abstract <chr>,
    #> #   GrantStartYear <int>, PublicationYearOfAward <int>, GrantEndYear <chr>,
    #> #   ResearchInstitutionName <chr>, HundredDaysMissionFlag <int>,
    #> #   GrantAmountConverted <dbl>, StudySubject <chr>, Ethnicity <chr>,
    #> #   AgeGroups <chr>, Rurality <chr>, VulnerablePopulations <chr>,
    #> #   OccupationalGroups <chr>, StudyType <chr>, ClinicalTrial <chr>, …
…
For example, the following will process the Pandemic PACT tracker
dataset into an aggregated dataset structure that can be used to create
a similar plot to the one presented in the
[website](https://www.pandemicimpact.org/visualise#disease).

``` r
pact_read_website() |>
  pact_process_website() |>
  pact_table_topic_group(topic = "Diseases", group = "GrantStartYear")
```

which produces the following output:

    #> # A tibble: 237 × 5
    #>    GrantStartYear Diseases        n_grants n_grants_specified grant_amount_total
    #>             <int> <chr>              <int>              <int>              <dbl>
    #>  1           2020 Bacterial infe…       62                 62          30158411.
    #>  2           2020 COVID-19           12507               9681       13000159989.
    #>  3           2020 Chikungunya ha…       53                 53          41394597.
    #>  4           2020 Cholera               42                 42          30913343.
    #>  5           2020 Congenital inf…       21                 20           9896921.
    #>  6           2020 Crimean-Congo …       39                 39          27760800.
    #>  7           2020 Dengue               145                145         113728877.
    #>  8           2020 Disease X            180                176         408947570.
    #>  9           2020 Disorder cause…       12                 12           6696306 
    #> 10           2020 Ebola                127                124          78097439.
    #> # ℹ 227 more rows
…
