Figshare workflow • pactr
…
Process the Pandemic PACT tracker dataset

To process the Pandemic PACT tracker dataset downloaded from
Figshare, use the following commands:

pact_read_figshare(pact_client) |>
  pact_process_figshare()

which outputs a data.frame of the processed Pandemic
PACT funding tracker dataset:

pact_read_figshare(pact_client) |>
  pact_process_figshare()
#> # A tibble: 4,637 × 37
#>    PactID Grant.Number Grant.Title.Original             Grant.Title.Eng Award.Amount.Converted
#>    <chr>  <chr>        <chr>                            <chr>                            <dbl>
#>  1 C00153 unknown      Serological studies to quantify… "Serological s…               1043108.
#>  2 C00154 unknown      African COVID-19 Preparedness (… "African COVID…               2462448.
#>  3 C00155 unknown      COVID-19 Intervention Modelling… "COVID-19 Inte…               1699974.
#>  4 C00156 unknown      The African coaLition for Epide… "The African c…               1742202.
#>  5 C00157 unknown      Characterization of SARS-CoV-2 … "Characterizat…               2484600 
#>  6 C00158 unknown      Investigation of pre-existing i… "Investigation…               1551892.
#>  7 C00159 unknown      A comprehensive study of immuno… ""                            1106601.
#>  8 C00160 MC_PC_19012  Centre for Global Infectious Di… "Centre for Gl…                660260 
#>  9 C00161 MC_PC_19025  ISARIC - Coronavirus Clinical C… "ISARIC - Coro…                 98958.
#> 10 C00162 MC_PC_19026  MRC Centre for Virus Research (… "MRC Centre fo…                660260 
#> # ℹ 4,627 more rows
#> # ℹ 32 more variables: Abstract.Eng <chr>, Laysummary <chr>, ODA.funding.used <chr>,
#> #   Grant.Type <chr>, Grant.Start.Year <int>, Study.Subject <list>, Ethnicity <list>,
#> #   Age.Groups <list>, Rurality <list>, Vulnerable.Population <list>,
#> #   Occupational.Groups <list>, Study.Type <list>, Clinical.Trial <list>, report <chr>,
#> #   Pathogen <list>, Pathogen.Specific <list>, Disease <list>, mesh_terms <chr>,
#> #   complete_section1 <chr>, Funder.Name <list>, Funder.Country <list>, …
…
