Website dataset workflow • pactr
…
which will return the path to the downloaded dataset:

#> [1] "/tmp/Rtmp9kzQu5/pandemic-pact-grants.csv"

Read the Pandemic PACT tracker dataset from the website

Instead of downloading, the Pandemic PACT dataset available from its
website can be read into R directly as follows:

pact_read_website()

which results in the following:

#> # A tibble: 9,862 × 39
#>    GrantID PubMedGrantId GrantTitleEng           Abstract PublicationYearOfAward
#>    <chr>   <list>        <chr>                   <chr>                     <int>
#>  1 C00037  <chr [1]>     COVID-19: Improving th… "The cl…                   2020
#>  2 C00038  <chr [3]>     Identification of biom… "The ou…                   2020
#>  3 C00040  <chr [2]>     Development of a rapid… "This r…                   2020
#>  4 C00041  <chr [1]>     Rapid, Low-cost Diagno… "The ou…                   2020
#>  5 C00043  <chr [1]>     Rapid Research Respons… "In 201…                   2020
#>  6 C00045  <chr [1]>     Development and Evalua… "Corona…                   2020
#>  7 C00046  <chr [2]>     Rapid development of a… "The ou…                   2020
#>  8 C00047  <chr [1]>     Preventing SARS-CoV- 2… "The SA…                   2020
#>  9 C00048  <chr [1]>     Understanding, Forecas… "A new …                   2020
#> 10 C00049  <chr [2]>     RIsk of environmental … "This s…                   2020
#> # ℹ 9,852 more rows
#> # ℹ 34 more variables: GrantEndYear <int>, ResearchInstitutionName <chr>,
#> #   GrantAmountConverted <dbl>, StudySubject <list>, Ethnicity <list>,
#> #   AgeGroups <list>, Rurality <list>, VulnerablePopulations <list>,
#> #   OccupationalGroups <list>, StudyType <list>, ClinicalTrial <list>,
#> #   Pathogen <list>, InfluenzaA <chr>, InfluenzaH1 <chr>, InfluenzaH2 <chr>,
#> #   InfluenzaH3 <chr>, InfluenzaH5 <chr>, InfluenzaH6 <chr>, …
…
The package includes functions that will process the Pandemic PACT
tracker dataset into specific structures and aggregations that will
allow for further plotting and reporting of similar outputs that are
currently presented in the Pandemic PACT website.

For example, the following will process the Pandemic PACT tracker
dataset into an aggregated dataset structure that can be used to create
a similar plot to the one presented in the website.

pact_read_website() |>
  pact_process_website_topic_group(topic = "Disease", group = "GrantStartYear")

which produces the following output:

#> # A tibble: 170 × 3
#>    GrantStartYear Disease                                      n
#>             <int> <chr>                                    <int>
#>  1           1978 Pandemic-prone influenza                     1
#>  2           1978 Severe Acute Respiratory Syndrome (SARS)     1
#>  3           1981 COVID-19                                     1
#>  4           1982 COVID-19                                     1
#>  5           1988 COVID-19                                     1
#>  6           1992 COVID-19                                     6
#>  7           1994 COVID-19                                     2
#>  8           1996 COVID-19                                     1
#>  9           1997 COVID-19                                    28
#> 10           1997 Zika virus disease                           1
#> # ℹ 160 more rows
…
